{
    "acts": [
        {
            "act": "<<indienen betalingsaanvraag>>",
            "actor": "[agrarisch collectief]",
            "action": "[indienen]",
            "object": "[betalingsaanvraag]",
            "interested-party": "[RVO]",
            "preconditions": "[betaalverzoek is tussen 1 maart en 15 mei ingediend]",
            "create": [
                "[aanvraag]"
            ],
            "terminate": [
                "[aanvraagformulier betalingsaanvraag]"
            ],
            "sources": [
                {
                    "validFrom": "01-01-2020",
                    "citation": "art. 72, lid 1 Vo (EU) 1306/2013 en art 3.11, onder g SVNL 2016",
                    "juriconnect": "",
                    "text": "Een begunstigde van de in artikel 67, lid 2, bedoelde steun dient elk jaar een aanvraag voor rechtstreekse betalingen of een betalingsaanvraag in"
                }
            ],
            "explanation": "Zowel de Europese Vo als de provinciale vo regelt dat je een betaalverzoek/aanvraag moet doen. Om de de Europese Vo het recht creëert, heb ik alleen de sourcetekst van de Europese Vo opgenomen."
        },
        {
            "act": "<<voorafgaand controleren>>",
            "actor": "[RVO]",
            "action": "[controleren]",
            "object": "[betalingsaanvraag]",
            "interested-party": "[agrarisch collectief]",
            "preconditions": {
                "expression": "AND",
                "operands": [
                    "[betalingsaanvraag]",
                    "[goedgekeurde gebiedsaanvraag]"
                ]
            },
            "create": [
                "[teruglegging geconstateerde fouten]"
            ],
            "terminate": [
                "[voorafgaande controles]"
            ],
            "sources": [
                {
                    "validFrom": "01-01-2020",
                    "citation": "art. 11, lid 4 Vo (EU) 809/2014",
                    "juriconnect": "",
                    "text": "Wanneer in het kader van het geïntegreerde systeem het vooraf opgestelde formulier en het bijbehorende grafische materiaal als bedoeld in artikel 72, lid 3, van Verordening (EU) nr. 1306/2013 worden verstrekt via een GIS-gebaseerde interface die de verwerking van de ruimtelijke en alfanumerieke gegevens van de aangegeven percelen mogelijk maakt (hierna „geospatiaal steunaanvraagformulier” genoemd), kunnen de lidstaten besluiten een systeem van voorafgaande kruiscontroles (hierna „voorafgaande controles” genoemd) in te voeren dat ten minste de in artikel 29, lid 1, eerste alinea, onder a), b) en c), van deze verordening bedoelde kruiscontroles omvat."
                }
            ],
            "explanation": "de vervolgacties van de voorcontroles is voor een aangegeven aantal controles teruglegging, zodat de fouten nog gecorrigeerd kunnen worden. Er worden meer (voor)controles uitgevoerd, waar deze dienstverlening niet geleverd wordt"
        },
        {
            "act": "<<terugleggen geconstateerde fouten>>",
            "actor": "[RVO]",
            "action": "[teruglegging]",
            "object": "[fouten]",
            "interested-party": "[agrarisch collectief]",
            "preconditions": "[voorafgaand controleren]",
            "create": [
                "[Correctie]"
            ],
            "terminate": [
                "[voorafgaande controles]"
            ],
            "sources": [],
            "explanation": ""
        },
        {
            "act": "<<geven presentatie>>",
            "actor": "[Pim]",
            "action": "[]",
            "object": "[slides]",
            "interested-party": "[RVO]",
            "preconditions": {
                "expression": "AND",
                "operands": [
                    "[beamer werkt]",
                    "[iedereem is aanwezig]"
                ]
            },
            "create": [],
            "terminate": [],
            "sources": [],
            "explanation": ""
        },
        {
            "act": "<<corrigeren door RVO geconstateerde fout>>",
            "actor": "[agrarisch collectief]",
            "action": "[correctie]",
            "object": "[geconstateerde fout]",
            "interested-party": "[RVO]",
            "preconditions": "",
            "create": [],
            "terminate": [],
            "sources": [
                {
                    "validFrom": "01-01-2020",
                    "citation": "artikel 13 Vo (EU) 640/2014 en artikel 11 lid 4 en artikel 15 lid 2a Vo (EU) 809/2014",
                    "juriconnect": "",
                    "text": ""
                }
            ],
            "explanation": ""
        },
        {
            "act": "<<verantwoorden beheeractiviteiten en wijzigingen>>",
            "actor": "[agrarisch collectief]",
            "action": "[]",
            "object": "[begroting]",
            "interested-party": "[RVO]",
            "preconditions": {
                "expression": "AND",
                "operands": [
                    "[identiteit van de begustigde]",
                    "[kenmerk van de bijbehorende beschikking tot subsidieverlening van de gebiedsaanvraag]",
                    "[De wijzigingen (ten opzichte van jaarlijks beheer) die doorgevoerd zijn op de beheeractiviteiten met reden van wijzigen en per welke datum (indien van toepassing).]",
                    {
                        "expression": "LIST",
                        "name": "[Perceel]",
                        "items": {
                            "expression": "AND",
                            "operands": [
                                "[De ligging (geometrie)]",
                                "[De omvang van de beheerde oppervlakte (in hectares in 2 decimalen voor landbouwgrond en in 4 decimalen voor niet-landbouwgrond) die exact past bij de geometrie (ligging).]",
                                "[Het leefgebied waartoe het perceel behoort.]",
                                "[Het deelgebied waartoe het perceel behoort (indien van toepassing).]",
                                "[De beheerfunctie waartoe het perceel behoort]",
                                "[Opgave van de uitgevoerde beheeractiviteit (Nederlandse versie van de koppeltabel) of combinatie van beheeractiviteiten.]",
                                "[De aard van het grondgebruik: grasland, bouwland, landschapselement (w.o. water)]"
                            ]
                        }
                    },
                    "[Digitale handtekening van de verantwoording]"
                ]
            },
            "create": [],
            "terminate": [],
            "sources": [],
            "explanation": ""
        },
        {
            "act": "<<Beoordelen verantwoording>>",
            "actor": "[RVO]",
            "action": "[beoordelen]",
            "object": "[verantwoording]",
            "interested-party": "[agrarisch collectief]",
            "preconditions": "",
            "create": [],
            "terminate": [],
            "sources": [],
            "explanation": ""
        },
        {
            "act": "<<beoordelen betalingsaanvraag>>",
            "actor": "[RVO]",
            "action": "[beoordelen]",
            "object": "[betalingsaanvraag]",
            "interested-party": "[agrarisch collectief]",
            "preconditions": "",
            "create": [],
            "terminate": [],
            "sources": [],
            "explanation": ""
        },
        {
            "act": "<<Uitbetalen subsidie ANLb>>",
            "actor": "[RVO]",
            "action": "[uitbetalen]",
            "object": "[subsidie ANLb]",
            "interested-party": "[agrarisch collectief]",
            "preconditions": "",
            "create": [],
            "terminate": [],
            "sources": [],
            "explanation": ""
        }
    ],
    "facts": [
        {
            "fact": "[aanvraag]",
            "function": "<<>>",
            "sources": [],
            "explanation": ""
        },
        {
            "fact": "[subsidie ANLb]",
            "function": "[]",
            "sources": [],
            "explanation": ""
        },
        {
            "fact": "[aanvraagformulier betalingsaanvraag]",
            "function": "[]",
            "sources": [],
            "explanation": ""
        },
        {
            "fact": "[agrarisch collectief]",
            "function": "[]",
            "sources": [],
            "explanation": ""
        },
        {
            "fact": "[betalingsaanvraag]",
            "function": {
                "expression": "AND",
                "operands": [
                    "[goedgekeurde gebiedsaanvraag]",
                    "[De identiteit van de begunstigde]",
                    "[De naam van de regeling]",
                    "[De totale omvang in hectares in 2 decimalen per leefgebied/deelgebied waarvoor betaling wordt gevraagd]",
                    {
                        "name": "[perceel]",
                        "expression": "LIST",
                        "items": {
                            "expression": "AND",
                            "operands": [
                                "[De ligging (geometrie).]",
                                "[Het leefgebied waartoe het perceel behoort.]",
                                "[Indien van toepassing het deelgebied waartoe het perceel behoort.]",
                                "[Omvang van de beheerde oppervlakte (in hectares in 2 decimalen voor landbouwgrond, die exact past bij de geometrie (uit eerste punt).]",
                                "[Aard van het grondgebruik (grasland, bouwland, landschapselement of water).]"
                            ]
                        }
                    },
                    "[De identificatie van niet-landbouwgrond die voor steun in aanmerking komt (subsidiabele landschapselementen (met uitzondering van hoogstamboomgaard, natuurvriendelijke oever en solitaire boom) en water).]",
                    "[Verklaring van het agrarisch collectief dat de individuele deelnemers weten wat de verplichtingen en consequenties zijn]",
                    "[De unieke identificatie van iedere deelnemer van het agrarisch collectief]",
                    "[Aanvraagnummer gebiedsaanvraag (provincie) als bewijsstuk om te bepalen of de begunstigde voor betaling in aanmerking komt.]",
                    "[De bewijsstukken die nodig zijn om te bepalen of de aanspraak op de steun/bijstand kan worden gemaakt. Hier moet worden gedacht aan stukken die de inhoud van de betalingsaanvraag onderbouwen]"
                ]
            },
            "sources": [],
            "explanation": ""
        },
        {
            "fact": "[betaalverzoek is tussen 1 maart en 15 mei ingediend]",
            "function": "[]",
            "sources": [],
            "explanation": ""
        },
        {
            "fact": "[agrarisch collectief]",
            "function": "[]",
            "sources": [],
            "explanation": ""
        },
        {
            "fact": "[RVO]",
            "function": "[]",
            "sources": [],
            "explanation": ""
        },
        {
            "fact": "[subsidieontvanger]",
            "function": "[]",
            "sources": [],
            "explanation": "subisidieontvanger is in dit deze context het agrarisch collectief"
        },
        {
            "fact": "[De identiteit van de begunstigde]",
            "function": "[]",
            "sources": [],
            "explanation": ""
        },
        {
            "fact": "[De naam van de regeling]",
            "function": "[]",
            "sources": [],
            "explanation": ""
        },
        {
            "fact": "[De totale omvang in hectares in 2 decimalen per leefgebied/deelgebied waarvoor betaling wordt gevraagd]",
            "function": "[]",
            "sources": [],
            "explanation": ""
        },
        {
            "fact": "[De identificatie van niet-landbouwgrond die voor steun in aanmerking komt (subsidiabele landschapselementen (met uitzondering van hoogstamboomgaard, natuurvriendelijke oever en solitaire boom) en water).]",
            "function": "[]",
            "sources": [],
            "explanation": ""
        },
        {
            "fact": "[Verklaring van het agrarisch collectief dat de individuele deelnemers weten wat de verplichtingen en consequenties zijn]",
            "function": "[]",
            "sources": [],
            "explanation": ""
        },
        {
            "fact": "[De unieke identificatie van iedere deelnemer van het agrarisch collectief]",
            "function": "[]",
            "sources": [],
            "explanation": ""
        },
        {
            "fact": "[Aanvraagnummer gebiedsaanvraag (provincie) als bewijsstuk om te bepalen of de begunstigde voor betaling in aanmerking komt.]",
            "function": "[]",
            "sources": [],
            "explanation": ""
        },
        {
            "fact": "[De bewijsstukken die nodig zijn om te bepalen of de aanspraak op de steun/bijstand kan worden gemaakt. Hier moet worden gedacht aan stukken die de inhoud van de betalingsaanvraag onderbouwen]",
            "function": "[]",
            "sources": [],
            "explanation": ""
        },
        {
            "fact": "[goedgekeurde gebiedsaanvraag]",
            "function": "[]",
            "sources": [],
            "explanation": ""
        },
        {
            "fact": "[voorafgaande controles]",
            "function": "[]",
            "sources": [],
            "explanation": ""
        },
        {
            "fact": "[voorafgaand controleren]",
            "function": "[]",
            "sources": [],
            "explanation": "dit is een fact om het model kloppend te maken"
        },
        {
            "fact": "[fouten]",
            "function": "[]",
            "sources": [],
            "explanation": ""
        },
        {
            "fact": "[geconstateerde fout]",
            "function": "[]",
            "sources": [],
            "explanation": ""
        },
        {
            "fact": "[begroting]",
            "function": "[]",
            "sources": [],
            "explanation": ""
        },
        {
            "fact": "[Correctie]",
            "function": "[]",
            "sources": [],
            "explanation": ""
        },
        {
            "fact": "[teruglegging geconstateerde fouten]",
            "function": "[]",
            "sources": [],
            "explanation": ""
        },
        {
            "fact": "[verantwoording]",
            "function": "[]",
            "sources": [],
            "explanation": ""
        }
    ],
    "duties": []
}
